{
  "images" : [
    {
      "idiom" : "universal",
      "scale" : "1x",
      "filename" : "newLapse.png"
    },
    {
      "idiom" : "universal",
      "scale" : "2x",
      "filename" : "newLapse@2x.png"
    },
    {
      "idiom" : "universal",
      "scale" : "3x",
      "filename" : "newLapse@3x.png"
    }
  ],
  "info" : {
    "author" : "zeplin",
    "version" : "1"
  }
}